<?xml version="1.0" encoding="utf-8"?>
<!-- Generator: Adobe Illustrator 19.0.0, SVG Export Plug-In . SVG Version: 6.00 Build 0)  -->
<svg version="1.1" id="Layer_1" xmlns="http://www.w3.org/2000/svg" xmlns:xlink="http://www.w3.org/1999/xlink" x="0px" y="0px"
	 viewBox="0 0 850.4 436.3" style="enable-background:new 0 0 850.4 436.3;" xml:space="preserve">
<g>
	<g>
		<path d="M89.8,435.2H76v-50.9l-23.8,50.9h-13l-25.3-52v52H0v-83h14.1l31.5,64.5l30.2-64.5h14.1V435.2z"/>
		<path d="M212.9,412.2h13.8c0.2,6.9,5.9,10.3,12.1,10.3c6.4,0,12.1-4,12.1-10.5c0-7-6.5-11.4-12.1-11.6c-0.7,0-6.4,0-12.4-2.7
			c-8.6-4-13.5-11.4-13.5-21.2c0-15.7,12.5-25.3,25.9-25.3c14.3,0,25.3,9.7,25.6,23.8h-13.7c-0.2-6.9-5.6-9.9-11.8-9.9
			c-6.5,0-12.1,3.8-12.1,11.5c0,6.9,5.9,10.5,12.1,10.5c0.6,0,6.4,0,12.3,2.7c8.8,4,13.5,12.4,13.5,22.2c0,15.9-12.4,24.4-25.8,24.4
			C224.5,436,213.2,427.7,212.9,412.2z"/>
		<path d="M360.5,352.3v82.8h-13.8v-34.6h-34.4v34.6h-13.9v-82.8h13.9v34.3h34.4v-34.3H360.5z"/>
		<path d="M421.1,365v57.5h9.7v12.7h-33.3v-12.7h9.7V365H398v-12.7h32.3V365H421.1z"/>
		<path d="M511.5,435.2l-21.5-34.6H482v34.6h-13.8v-48.3h13.1l-13.1-20.7v-13.8h27.6c0,0,27.7,0,27.7,24.1
			c0,14.7-10.2,20.5-18.2,22.7l22.5,36H511.5z M497.5,386.8c3.7-0.4,12.1-2.1,12.1-10.3c0-10.3-13.8-10.3-13.8-10.3h-11.1
			L497.5,386.8z"/>
		<path d="M601.8,436.2c-54.7,0-54.6-85,0-85C656.1,351.3,656.2,436.2,601.8,436.2z M601.8,364.7c-35.7,0-35.9,58.1,0,58.1
			C637.6,422.9,637.6,364.7,601.8,364.7z"/>
		<path d="M747.9,435.2h-14l-41.2-58.9v58.9h-13.8v-82.8h14l41.3,58.9v-58.9h13.7V435.2z"/>
		<polygon points="148.5,350 115.4,435.2 130.4,435.2 148.5,384.9 166.7,435.2 181.6,435.2 		"/>
		<polygon points="817.3,350 784.2,435.2 799.1,435.2 817,385.6 817.3,384.9 817.3,384.9 817.3,384.9 835.5,435.2 850.4,435.2 		"/>
	</g>
	<g>
		<g>
			<path d="M243.9,183.3h-11.2v-41.1l-19.2,41.1H203l-20.4-41.9v41.9h-11.2v-66.9h11.4l25.4,52l24.3-52h11.4V183.3z"/>
			<path d="M665.9,183.3l-17.4-27.9h-6.4v27.9h-11.2v-39h10.6l-10.6-16.7v-11.2h22.2c0,0,22.3,0,22.3,19.5
				c0,11.8-8.2,16.5-14.7,18.3l18.1,29H665.9z M654.6,144.2c3-0.3,9.7-1.7,9.7-8.3c0-8.3-11.2-8.3-11.2-8.3h-9L654.6,144.2z"/>
		</g>
		<path d="M430.1,108.8L383,3.4c-1.3-2.9-4.6-4.2-7.5-2.9c-2.9,1.3-4.2,4.6-2.9,7.5l51.2,114.8L430.1,108.8z"/>
		<path d="M617.4,300.1h12.4L497.4,3.4c-1.3-2.9-4.6-4.2-7.5-2.9C487,1.8,485.7,5.1,487,8L617.4,300.1z"/>
		<polygon points="515.5,300.1 454.6,163.6 448.3,177.5 503.1,300.1 		"/>
		<path d="M352.9,58.8L242.5,300.1h19.9L362.7,80.7l47,104.8l-52.4,114.6h19.9l42.4-92.7l41.6,92.7h19.8l-51.5-114.6l48.1-105.1
			l98.4,219.7h19.8L464.8,7.5c-2-4.6-7.4-6.6-11.9-4.6c-4.6,2-6.6,7.4-4.6,11.9l19.5,43.6l-48.1,105.1L349.7,7.5
			c-2-4.6-7.4-6.6-12-4.5c-4.6,2-6.6,7.4-4.5,12L352.9,58.8z"/>
	</g>
</g>
</svg>
