<?xml version="1.0" standalone="no"?>
<!DOCTYPE svg PUBLIC "-//W3C//DTD SVG 20010904//EN"
 "http://www.w3.org/TR/2001/REC-SVG-20010904/DTD/svg10.dtd">
<svg version="1.0" xmlns="http://www.w3.org/2000/svg"
 width="508.000000pt" height="508.000000pt" viewBox="0 0 508.000000 508.000000"
 preserveAspectRatio="xMidYMid meet">
<metadata>
Created by potrace 1.11, written by Peter Selinger 2001-2013
</metadata>
<g transform="translate(0.000000,508.000000) scale(0.100000,-0.100000)"
fill="#000000" stroke="none">
<path d="M2033 4014 c-27 -27 -26 -37 12 -119 13 -27 98 -216 188 -420 91
-203 186 -417 212 -475 26 -58 57 -125 68 -150 l20 -45 32 69 c37 78 39 64
-32 216 -19 41 -46 102 -60 135 -14 33 -40 92 -58 130 -17 39 -89 201 -160
360 -71 160 -132 295 -137 301 -18 24 -60 23 -85 -2z"/>
<path d="M3181 4024 c-12 -9 -21 -26 -21 -40 0 -20 112 -282 232 -543 11 -25
55 -124 98 -220 43 -97 89 -201 103 -231 29 -64 283 -635 517 -1160 89 -201
186 -417 214 -480 29 -63 72 -161 97 -217 l44 -103 63 0 c34 0 62 4 62 9 0 5
-16 44 -36 87 -20 44 -137 306 -261 584 -237 530 -428 959 -469 1048 -13 29
-24 54 -24 57 0 2 -15 36 -34 77 -28 62 -396 885 -473 1060 -36 81 -69 102
-112 72z"/>
<path d="M1672 4005 c-73 -31 -69 -75 27 -287 43 -95 88 -196 100 -223 l22
-50 -92 -200 c-50 -110 -104 -229 -121 -265 -17 -36 -63 -137 -103 -225 -40
-88 -89 -194 -108 -235 -19 -41 -81 -176 -137 -300 -56 -124 -201 -440 -321
-703 -121 -262 -219 -479 -219 -481 0 -2 43 -4 95 -4 72 -1 98 3 110 14 8 9
15 19 15 24 0 4 25 60 55 125 30 64 55 118 55 120 0 2 15 37 34 77 64 137 108
233 153 333 25 55 65 142 89 194 24 51 44 95 44 96 0 2 16 39 36 82 106 228
159 344 354 773 79 173 148 321 155 328 14 16 -5 55 208 -423 96 -214 189
-420 206 -457 16 -37 37 -83 45 -103 l16 -36 -159 -347 c-87 -191 -168 -367
-179 -392 -11 -25 -54 -118 -95 -208 -42 -89 -78 -171 -82 -181 -6 -19 -1 -20
94 -19 l99 0 168 367 c92 201 187 409 212 460 l43 95 20 -45 c11 -24 45 -100
76 -168 30 -68 68 -154 85 -190 16 -36 36 -80 44 -97 22 -50 70 -155 101 -224
17 -36 41 -90 53 -120 13 -30 27 -60 32 -67 11 -14 184 -17 193 -3 5 8 -10 47
-64 162 -17 37 -31 69 -31 71 0 3 -21 49 -46 103 -25 55 -51 113 -59 129 -7
17 -43 98 -80 180 -74 165 -82 183 -165 365 -48 107 -55 129 -46 150 5 14 27
61 47 105 20 44 46 100 57 125 11 25 39 86 62 135 23 50 51 110 62 135 11 25
44 97 73 160 29 63 62 135 73 160 11 25 37 81 57 125 l36 80 20 -45 c12 -25
68 -151 126 -280 58 -129 113 -253 123 -275 10 -22 98 -218 195 -435 97 -217
185 -414 195 -436 11 -23 40 -88 66 -145 25 -57 54 -122 64 -144 15 -34 82
-184 172 -386 l21 -47 98 0 c55 -1 99 3 99 8 0 5 -13 37 -29 72 -16 35 -57
126 -91 203 -34 77 -74 165 -87 195 -64 142 -260 576 -393 875 -283 633 -541
1210 -562 1255 -11 25 -38 84 -59 132 -90 204 -98 219 -135 234 -29 12 -39 12
-68 0 -66 -28 -71 -81 -18 -196 47 -102 81 -178 123 -273 l39 -89 -126 -276
c-70 -153 -143 -313 -164 -357 -20 -44 -70 -153 -110 -242 -41 -90 -77 -160
-81 -155 -6 6 -41 81 -161 352 -11 25 -32 70 -45 100 -14 30 -54 120 -90 200
-154 343 -287 639 -308 685 -13 28 -39 84 -57 126 -18 41 -40 85 -48 97 -21
31 -69 43 -108 27z"/>
<path d="M28 2872 c-10 -2 -18 -9 -19 -15 0 -7 -1 -156 -1 -332 l0 -320 58 0
58 0 -1 198 c0 109 1 196 3 194 4 -4 145 -287 179 -359 17 -37 19 -38 72 -38
l54 0 55 118 c30 64 72 153 94 197 l39 80 0 -197 1 -198 58 0 57 0 0 333 0
332 -35 5 c-74 11 -82 5 -125 -89 -22 -47 -65 -140 -96 -206 -31 -66 -67 -142
-79 -170 l-23 -50 -124 255 c-69 140 -126 256 -127 257 -5 5 -81 9 -98 5z"/>
<path d="M4602 2824 c-1 -54 13 -92 62 -165 36 -53 43 -70 29 -68 -5 1 -27 1
-49 0 l-42 -1 2 -192 1 -193 57 -3 57 -3 -2 141 -2 140 32 0 c29 0 36 -8 118
-140 l86 -140 65 0 c35 0 64 3 64 6 0 4 -35 63 -79 133 -43 69 -81 132 -85
139 -5 8 4 17 27 27 46 19 94 76 103 120 16 88 -10 157 -76 202 -51 35 -94 43
-236 43 l-131 0 -1 -46z m289 -84 c58 -26 58 -100 0 -131 -41 -22 -50 -18 -78
29 -12 20 -34 56 -48 80 l-26 42 63 -4 c35 -2 75 -10 89 -16z"/>
<path d="M2806 2329 c-31 -72 -31 -74 -7 -125 10 -21 76 -167 146 -324 70
-157 135 -303 145 -325 10 -22 35 -78 56 -125 20 -47 54 -121 74 -165 20 -44
51 -115 70 -157 l33 -77 64 0 c45 1 63 4 60 12 -7 17 -344 774 -367 822 -21
47 -49 109 -155 348 -44 97 -82 177 -86 177 -3 0 -18 -27 -33 -61z"/>
</g>
</svg>
