<?xml version="1.0" encoding="utf-8"?>
<!-- Generator: Adobe Illustrator 19.0.0, SVG Export Plug-In . SVG Version: 6.00 Build 0)  -->
<svg version="1.1" id="Layer_1" xmlns="http://www.w3.org/2000/svg" xmlns:xlink="http://www.w3.org/1999/xlink" x="0px" y="0px"
	 viewBox="0 0 507.5 300.1" style="enable-background:new 0 0 507.5 300.1;" xml:space="preserve">
<g>
	<g>
		<path d="M72.5,183.3H61.3v-41.1l-19.2,41.1H31.6l-20.4-41.9v41.9H0v-66.9h11.4l25.4,52l24.3-52h11.4V183.3z"/>
		<path d="M494.4,183.3l-17.4-27.9h-6.4v27.9h-11.2v-39h10.6l-10.6-16.7v-11.2h22.2c0,0,22.3,0,22.3,19.5c0,11.8-8.2,16.5-14.7,18.3
			l18.1,29H494.4z M483.2,144.2c3-0.3,9.7-1.7,9.7-8.3c0-8.3-11.2-8.3-11.2-8.3h-9L483.2,144.2z"/>
	</g>
	<path d="M258.7,108.8L211.6,3.4c-1.3-2.9-4.6-4.2-7.5-2.9c-2.9,1.3-4.2,4.6-2.9,7.5l51.2,114.8L258.7,108.8z"/>
	<path d="M446,300.1h12.4L325.9,3.4c-1.3-2.9-4.6-4.2-7.5-2.9c-2.9,1.3-4.2,4.6-2.9,7.5L446,300.1z"/>
	<polygon points="344.1,300.1 283.1,163.6 276.9,177.5 331.6,300.1 	"/>
	<path d="M181.5,58.8L71.1,300.1H91L191.3,80.7l47,104.8l-52.4,114.6h19.9l42.4-92.7l41.6,92.7h19.8l-51.5-114.6l48.1-105.1
		l98.4,219.7h19.8L293.4,7.5c-2-4.6-7.4-6.6-11.9-4.6c-4.6,2-6.6,7.4-4.6,11.9l19.5,43.6l-48.1,105.1L178.2,7.5
		c-2-4.6-7.4-6.6-12-4.5c-4.6,2-6.6,7.4-4.5,12L181.5,58.8z"/>
</g>
</svg>
